[{
	"hubName":"velachery",
	"hubAddress":"velachery",
	"hubPincode":"600042",
    "hubLandlineNo":"044456789",
    "hubAdmin":"thiru", //if possible
    "hubAdminNumber":"8124888145" // if possible
},{
	"hubName":"chetpet",
	"hubAddress":"chetpet",
	"hubPincode":"600031",
    "hubLandlineNo":"044456710",
    "hubAdmin":"chandran", //if possible
    "hubAdminNumber":"8124888145" // if possible
	
},{
	"hubName":"thiruvallur",
	"hubAddress":"thiruvallur",
	"hubPincode":"601201",
    "hubLandlineNo":"044456711",
    "hubAdmin":"manoj", //if possible
    "hubAdminNumber":"8124888136" // if possible
	
}]